<?xml version="1.0" encoding="utf-8"?>
<!-- Generator: Adobe Illustrator 22.1.0, SVG Export Plug-In . SVG Version: 6.00 Build 0)  -->
<svg version="1.1" id="Laag_1" xmlns="http://www.w3.org/2000/svg" xmlns:xlink="http://www.w3.org/1999/xlink" x="0px" y="0px"
	 width="127.8px" height="128.7px" viewBox="0 0 127.8 128.7" style="enable-background:new 0 0 127.8 128.7;" xml:space="preserve"
	>
<style type="text/css">
	.st0{fill:#FCBE0B;}
	.st1{opacity:0.1;fill:#010202;}
	.st2{fill:#FEDC43;}
	.st3{opacity:0.15;fill:#FFFFFF;}
	.st4{fill:#CA3A83;stroke:#FFFFFF;stroke-width:2;stroke-miterlimit:10;}
	.st5{clip-path:url(#SVGID_2_);fill:#FFFFFF;}
</style>
<circle class="st0" cx="63.5" cy="63.5" r="63.5"/>
<circle class="st1" cx="63.5" cy="63.5" r="63.5"/>
<circle class="st0" cx="63.5" cy="63.5" r="53"/>
<path class="st2" d="M89.2,85.9c1.7,1.4,1.8,3.9,0.5,5.6c-5.2,6.1-11.9,9.4-18.9,9.4c-12.1,0-22.3-10-26.2-23.9h-5.7
	c-2.2,0-4-1.8-4-4c0-2.2,1.8-4,4-4h4.3c-0.2-1.4-0.3-2.6-0.3-4c0-1.4,0.2-2.6,0.3-4h-4.3c-2.2,0-4-1.8-4-4c0-2.2,1.8-4,4-4h5.7
	c3.8-13.9,14-23.9,26.2-23.9c7,0,13.7,3.3,18.9,9.4c1.4,1.7,1.2,4.1-0.5,5.6c-1.7,1.4-4.2,1.2-5.7-0.5c-3.6-4.2-8.1-6.5-12.8-6.5
	c-7.9,0-14.8,6.5-17.9,15.9h17.9c2.2,0,4,1.8,4,4c0,2.2-1.8,4-4,4H51.2c-0.2,1.3-0.3,2.6-0.3,4c0,1.4,0.2,2.7,0.3,4h19.6
	c2.2,0,4,1.8,4,4c0,2.2-1.8,4-4,4H52.8c3.2,9.4,10,15.9,17.9,15.9c4.6,0,9.2-2.3,12.8-6.5C85,84.7,87.5,84.4,89.2,85.9z"/>
<path class="st3" d="M63.5,116.5c29.3,0,53-23.7,53-53c0-1.6-0.1-3.1-0.2-4.7L56.8,116C59,116.3,61.2,116.5,63.5,116.5z"/>
<path class="st3" d="M19,34.7c-5.4,8.3-8.5,18.2-8.5,28.8c0,29.3,23.7,53,53,53c11.3,0,21.9-3.6,30.5-9.6L19,34.7z"/>
<g>
	<path class="st4" d="M105.5,125.8c10.6,0,19.3-8.6,19.3-19.3c0-10.4-8.3-18.9-18.7-19.3c-0.2,0-0.4,0-0.6,0
		c-10.6,0-19.3,8.6-19.3,19.3c0,1.2,0.1,2.3,0.3,3.4C88.2,118.9,96.1,125.8,105.5,125.8z"/>
</g>
<g>
	<defs>
		<path id="SVGID_1_" d="M108.3,106.7l7-6.8c0.6-0.6,0.6-1.6,0-2.3c-0.6-0.6-1.7-0.6-2.3,0l-7,6.8l-7-6.8c-0.6-0.6-1.7-0.6-2.3,0
			c-0.6,0.6-0.6,1.6,0,2.3l7,6.8l-7,6.8c-0.6,0.6-0.6,1.6,0,2.3c0.6,0.6,1.7,0.6,2.3,0l7-6.8l7,6.8c0.6,0.6,1.7,0.6,2.3,0
			c0.6-0.6,0.6-1.6,0-2.3L108.3,106.7z"/>
	</defs>
	<use xlink:href="#SVGID_1_"  style="overflow:visible;fill-rule:evenodd;clip-rule:evenodd;fill:#FFFFFF;"/>
	<clipPath id="SVGID_2_">
		<use xlink:href="#SVGID_1_"  style="overflow:visible;"/>
	</clipPath>
	<rect x="96" y="97" class="st5" width="19.9" height="19.4"/>
</g>
</svg>
