{
  "metadata": {
    "name": "ZK klantdomein",
    "lastOpened": 1494490385413,
    "created": 1494490377742
  },
  "iconSets": [
    {
      "selection": [
        {
          "order": 2,
          "id": 40,
          "name": "arrow-down",
          "prevSize": 32,
          "code": 59648,
          "tempChar": ""
        },
        {
          "order": 3,
          "id": 39,
          "name": "arrow-left",
          "prevSize": 32,
          "code": 59649,
          "tempChar": ""
        },
        {
          "order": 4,
          "id": 38,
          "name": "arrow-right",
          "prevSize": 32,
          "code": 59650,
          "tempChar": ""
        },
        {
          "order": 5,
          "id": 37,
          "name": "arrow-up",
          "prevSize": 32,
          "code": 59651,
          "tempChar": ""
        },
        {
          "order": 6,
          "id": 36,
          "name": "calendar",
          "prevSize": 32,
          "code": 59652,
          "tempChar": ""
        },
        {
          "order": 7,
          "id": 35,
          "name": "clock",
          "prevSize": 32,
          "code": 59653,
          "tempChar": ""
        },
        {
          "order": 8,
          "id": 34,
          "name": "comment",
          "prevSize": 32,
          "code": 59654,
          "tempChar": ""
        },
        {
          "order": 9,
          "id": 33,
          "name": "commenting",
          "prevSize": 32,
          "code": 59655,
          "tempChar": ""
        },
        {
          "order": 10,
          "id": 32,
          "name": "conversation",
          "prevSize": 32,
          "code": 59656,
          "tempChar": ""
        },
        {
          "order": 13,
          "id": 29,
          "name": "cross",
          "prevSize": 32,
          "code": 59657,
          "tempChar": ""
        },
        {
          "order": 11,
          "id": 31,
          "name": "cross-sign",
          "prevSize": 32,
          "code": 59658,
          "tempChar": ""
        },
        {
          "order": 12,
          "id": 30,
          "name": "cross-trans-marker",
          "prevSize": 32,
          "code": 59659,
          "tempChar": ""
        },
        {
          "order": 14,
          "id": 28,
          "name": "envelope",
          "prevSize": 32,
          "code": 59660,
          "tempChar": ""
        },
        {
          "order": 15,
          "id": 27,
          "name": "external-link",
          "prevSize": 32,
          "code": 59661,
          "tempChar": ""
        },
        {
          "order": 16,
          "id": 26,
          "name": "eye",
          "prevSize": 32,
          "code": 59662,
          "tempChar": ""
        },
        {
          "order": 17,
          "id": 25,
          "name": "facebook",
          "prevSize": 32,
          "code": 59663,
          "tempChar": ""
        },
        {
          "order": 19,
          "id": 23,
          "name": "file",
          "prevSize": 32,
          "code": 59664,
          "tempChar": ""
        },
        {
          "order": 18,
          "id": 24,
          "name": "file-stack",
          "prevSize": 32,
          "code": 59665,
          "tempChar": ""
        },
        {
          "order": 20,
          "id": 22,
          "name": "info-sign",
          "prevSize": 32,
          "code": 59666,
          "tempChar": ""
        },
        {
          "order": 21,
          "id": 21,
          "name": "linkedin",
          "prevSize": 32,
          "code": 59667,
          "tempChar": ""
        },
        {
          "order": 22,
          "id": 20,
          "name": "lock-open",
          "prevSize": 32,
          "code": 59668,
          "tempChar": ""
        },
        {
          "order": 24,
          "id": 18,
          "name": "marker",
          "prevSize": 32,
          "code": 59669,
          "tempChar": ""
        },
        {
          "order": 23,
          "id": 19,
          "name": "marker-zk",
          "prevSize": 32,
          "code": 59670,
          "tempChar": ""
        },
        {
          "order": 26,
          "id": 16,
          "name": "mobile",
          "prevSize": 32,
          "code": 59671,
          "tempChar": ""
        },
        {
          "order": 25,
          "id": 17,
          "name": "mobile-arrow",
          "prevSize": 32,
          "code": 59672,
          "tempChar": ""
        },
        {
          "order": 29,
          "id": 13,
          "name": "ok",
          "prevSize": 32,
          "code": 59673,
          "tempChar": ""
        },
        {
          "order": 27,
          "id": 15,
          "name": "ok-sign",
          "prevSize": 32,
          "code": 59674,
          "tempChar": ""
        },
        {
          "order": 28,
          "id": 14,
          "name": "ok-trans-marker",
          "prevSize": 32,
          "code": 59675,
          "tempChar": ""
        },
        {
          "order": 30,
          "id": 12,
          "name": "pencil",
          "prevSize": 32,
          "code": 59676,
          "tempChar": ""
        },
        {
          "order": 31,
          "id": 11,
          "name": "pie-euro",
          "prevSize": 32,
          "code": 59677,
          "tempChar": ""
        },
        {
          "order": 32,
          "id": 10,
          "name": "plus-marker",
          "prevSize": 32,
          "code": 59678,
          "tempChar": ""
        },
        {
          "order": 33,
          "id": 9,
          "name": "plus-sign",
          "prevSize": 32,
          "code": 59679,
          "tempChar": ""
        },
        {
          "order": 34,
          "id": 8,
          "name": "print",
          "prevSize": 32,
          "code": 59680,
          "tempChar": ""
        },
        {
          "order": 36,
          "id": 6,
          "name": "question",
          "prevSize": 32,
          "code": 59681,
          "tempChar": ""
        },
        {
          "order": 35,
          "id": 7,
          "name": "question-sign",
          "prevSize": 32,
          "code": 59682,
          "tempChar": ""
        },
        {
          "order": 37,
          "id": 5,
          "name": "search",
          "prevSize": 32,
          "code": 59683,
          "tempChar": ""
        },
        {
          "order": 38,
          "id": 4,
          "name": "star",
          "prevSize": 32,
          "code": 59684,
          "tempChar": ""
        },
        {
          "order": 39,
          "id": 3,
          "name": "twitter",
          "prevSize": 32,
          "code": 59685,
          "tempChar": ""
        },
        {
          "order": 40,
          "id": 2,
          "name": "user",
          "prevSize": 32,
          "code": 59686,
          "tempChar": ""
        },
        {
          "order": 41,
          "id": 1,
          "name": "wallet",
          "prevSize": 32,
          "code": 59687,
          "tempChar": ""
        },
        {
          "order": 42,
          "id": 0,
          "name": "whatsapp",
          "prevSize": 32,
          "code": 59688,
          "tempChar": ""
        }
      ],
      "id": 0,
      "metadata": {
        "name": "zk-icons-font",
        "importSize": {
          "width": 32,
          "height": 32
        }
      },
      "height": 1024,
      "prevSize": 32,
      "icons": [
        {
          "id": 40,
          "paths": [
            "M988.8 412.8l-476.8 377.6-476.8-377.6c-44.8-35.2-48-108.8-9.6-150.4s112-38.4 156.8-3.2l329.6 262.4 339.2-268.8c38.4-32 118.4-25.6 150.4 16 35.2 38.4 28.8 112-12.8 144v0z"
          ],
          "attrs": [
            {}
          ],
          "isMulticolor": false,
          "isMulticolor2": false,
          "grid": 32,
          "tags": [
            "arrow-down"
          ]
        },
        {
          "id": 39,
          "paths": [
            "M611.2 988.8l-377.6-476.8 377.6-476.8c35.2-44.8 108.8-48 150.4-9.6s38.4 108.8 3.2 153.6l-262.4 332.8 268.8 339.2c32 38.4 25.6 118.4-16 150.4-38.4 35.2-112 25.6-144-12.8v0z"
          ],
          "attrs": [
            {}
          ],
          "isMulticolor": false,
          "isMulticolor2": false,
          "grid": 32,
          "tags": [
            "arrow-left"
          ]
        },
        {
          "id": 38,
          "paths": [
            "M268.8 1001.6c-38.4-32-48-112-16-150.4l268.8-339.2-262.4-329.6c-35.2-44.8-38.4-115.2 3.2-153.6s115.2-38.4 150.4 9.6l377.6 473.6-377.6 476.8c-32 38.4-105.6 48-144 12.8v0z"
          ],
          "attrs": [
            {}
          ],
          "isMulticolor": false,
          "isMulticolor2": false,
          "grid": 32,
          "tags": [
            "arrow-right"
          ]
        },
        {
          "id": 37,
          "paths": [
            "M35.2 611.2l476.8-377.6 476.8 377.6c44.8 35.2 48 108.8 9.6 150.4s-108.8 38.4-153.6 3.2l-332.8-262.4-339.2 268.8c-38.4 32-118.4 25.6-150.4-16-35.2-38.4-28.8-112 12.8-144v0z"
          ],
          "attrs": [
            {}
          ],
          "isMulticolor": false,
          "isMulticolor2": false,
          "grid": 32,
          "tags": [
            "arrow-up"
          ]
        },
        {
          "id": 36,
          "paths": [
            "M323.2 6.4c-6.4-3.2-16-6.4-28.8-6.4-9.6 0-19.2 3.2-25.6 6.4-12.8 9.6-22.4 22.4-22.4 38.4v192c0 16 9.6 28.8 22.4 38.4 9.6 6.4 19.2 6.4 28.8 6.4s19.2-3.2 28.8-6.4c12.8-6.4 22.4-22.4 22.4-38.4v-192c-3.2-16-12.8-28.8-25.6-38.4v0z",
            "M960 140.8h-112v96c-3.2 67.2-57.6 118.4-124.8 118.4s-121.6-51.2-124.8-118.4v-96h-179.2v96c0 67.2-54.4 118.4-121.6 118.4 0 0 0 0-3.2 0 0 0 0 0-3.2 0-67.2 0-121.6-54.4-121.6-118.4v-96h-105.6c0 0 0 0 0 0-19.2 0-38.4 16-38.4 38.4v0 809.6c0 0 0 0 0 0 3.2 19.2 19.2 35.2 38.4 35.2 0 0 0 0 0 0h896c19.2 0 38.4-16 38.4-38.4v-806.4c-3.2-22.4-19.2-38.4-38.4-38.4v0zM803.2 870.4h-579.2c0 0-3.2 0-3.2 0-25.6 0-44.8-19.2-44.8-44.8s19.2-44.8 44.8-44.8c0 0 3.2 0 3.2 0h579.2c0 0 3.2 0 3.2 0 25.6 0 44.8 19.2 44.8 44.8s-19.2 44.8-44.8 44.8c-3.2 0-3.2 0-3.2 0v0zM803.2 668.8h-579.2c0 0-3.2 0-3.2 0-25.6 0-44.8-19.2-44.8-44.8s19.2-44.8 44.8-44.8c0 0 3.2 0 3.2 0h579.2c0 0 3.2 0 3.2 0 25.6 0 44.8 19.2 44.8 44.8s-19.2 44.8-44.8 44.8c-3.2 0-3.2 0-3.2 0v0z",
            "M768 28.8c-3.2-6.4-6.4-9.6-9.6-12.8s-3.2-3.2-6.4-6.4c-9.6-6.4-19.2-9.6-28.8-9.6s-19.2 3.2-28.8 6.4c-3.2 0-6.4 3.2-6.4 6.4-3.2 3.2-6.4 9.6-9.6 12.8-3.2 6.4-6.4 12.8-6.4 19.2v192c0 16 9.6 28.8 22.4 38.4 9.6 6.4 19.2 6.4 28.8 6.4s19.2-3.2 28.8-6.4c12.8-6.4 22.4-22.4 22.4-38.4v-192c-3.2-6.4-3.2-12.8-6.4-16v0z"
          ],
          "attrs": [
            {},
            {},
            {}
          ],
          "isMulticolor": false,
          "isMulticolor2": false,
          "grid": 32,
          "tags": [
            "calendar"
          ]
        },
        {
          "id": 35,
          "paths": [
            "M512 0c-281.6 0-512 230.4-512 512s230.4 512 512 512 512-230.4 512-512-230.4-512-512-512zM512 864c-195.2 0-352-156.8-352-352s156.8-352 352-352 352 156.8 352 352-156.8 352-352 352z",
            "M784 550.4l-195.2-89.6v-211.2c0-16-12.8-25.6-25.6-25.6h-105.6c-16 0-25.6 12.8-25.6 25.6v297.6c0 9.6 6.4 19.2 16 22.4l272 124.8c3.2 0 6.4 3.2 9.6 3.2s6.4 0 9.6 0c6.4-3.2 12.8-6.4 16-12.8l44.8-96c6.4-19.2 0-35.2-16-38.4z"
          ],
          "attrs": [
            {},
            {}
          ],
          "isMulticolor": false,
          "isMulticolor2": false,
          "grid": 32,
          "tags": [
            "clock"
          ]
        },
        {
          "id": 34,
          "paths": [
            "M96 44.8h832c54.4 0 96 28.8 96 83.2v521.6c0 54.4-44.8 99.2-96 99.2h-832c-54.4 0-96-44.8-96-99.2v-505.6c0-57.6 44.8-99.2 96-99.2zM764.8 969.6l-172.8-224h240v137.6c0 54.4-32 121.6-67.2 86.4v0z"
          ],
          "attrs": [
            {}
          ],
          "isMulticolor": false,
          "isMulticolor2": false,
          "grid": 32,
          "tags": [
            "comment"
          ]
        },
        {
          "id": 33,
          "paths": [
            "M928 38.4c54.4 0 96 44.8 96 99.2v508.8c0 54.4-57.6 99.2-112 99.2h-48v182.4c0 54.4-28.8 76.8-67.2 38.4l-153.6-214.4h-544c-54.4 0-99.2-44.8-99.2-99.2v-524.8c0-35.2 44.8-92.8 86.4-86.4l841.6-3.2zM112 230.4v12.8c0 16 16 32 32 32h512c16 0 32-16 32-32v-22.4c0-16-16-22.4-32-22.4h-512c-16 0-32 16-32 32zM435.2 592c19.2 0 28.8-16 32-32 0-16-16-48-32-48h-288c-16 0-32 16-32 32v16c0 19.2 16 32 32 32h288zM534.4 403.2v-9.6c0-16-16-35.2-32-35.2h-355.2c-16 0-32 16-32 35.2v12.8c0 19.2 16 32 32 32h355.2c16-3.2 32-16 32-35.2v0zM969.6 313.6c0 0 6.4-25.6-32-60.8s-67.2-28.8-67.2-28.8c-92.8 86.4-192 172.8-288 256l-25.6 112 124.8-22.4c96-83.2 192-169.6 288-256v0zM611.2 476.8c0 0 22.4 0 48 22.4s28.8 44.8 28.8 44.8l-12.8 9.6-41.6 9.6c-3.2-6.4-9.6-12.8-16-22.4-9.6-9.6-16-12.8-25.6-16l9.6-38.4 9.6-9.6z"
          ],
          "attrs": [
            {}
          ],
          "isMulticolor": false,
          "isMulticolor2": false,
          "grid": 32,
          "tags": [
            "commenting"
          ]
        },
        {
          "id": 32,
          "paths": [
            "M73.6 67.2c-38.4 0-73.6 35.2-73.6 73.6v364.8c0 41.6 35.2 73.6 73.6 73.6h28.8v124.8c0 41.6 25.6 64 51.2 35.2l140.8-160h406.4c38.4 0 73.6-32 73.6-73.6v-364.8c0-38.4-35.2-73.6-73.6-73.6l-627.2-0zM774.4 819.2l105.6 121.6c28.8 28.8 51.2 6.4 51.2-35.2v-86.4h12.8c38.4 0 76.8-35.2 76.8-73.6v-275.2c0-38.4-35.2-73.6-73.6-73.6h-121.6v124.8c3.2 38.4-57.6 115.2-102.4 115.2h-294.4v108.8c0 38.4 35.2 70.4 73.6 70.4h272z"
          ],
          "attrs": [
            {}
          ],
          "isMulticolor": false,
          "isMulticolor2": false,
          "grid": 32,
          "tags": [
            "conversation"
          ]
        },
        {
          "id": 29,
          "paths": [
            "M995.2 172.8l-339.2 339.2 332.8 329.6c35.2 38.4 35.2 102.4-6.4 140.8s-105.6 41.6-140.8 6.4l-329.6-332.8-339.2 339.2c-38.4 38.4-99.2 38.4-140.8-3.2s-44.8-105.6-6.4-144l342.4-336-332.8-332.8c-35.2-38.4-35.2-99.2 3.2-140.8s102.4-38.4 140.8-3.2l332.8 329.6 339.2-336c38.4-38.4 99.2-38.4 140.8 3.2s41.6 102.4 3.2 140.8v0z"
          ],
          "attrs": [
            {}
          ],
          "isMulticolor": false,
          "isMulticolor2": false,
          "grid": 32,
          "tags": [
            "cross"
          ]
        },
        {
          "id": 31,
          "paths": [
            "M512 0c-281.6 0-512 230.4-512 512s230.4 512 512 512 512-230.4 512-512-230.4-512-512-512zM752 678.4c16 19.2 16 48 0 67.2-19.2 22.4-51.2 22.4-73.6 6.4l-166.4-166.4-169.6 169.6c-19.2 16-48 16-67.2 0-22.4-19.2-25.6-51.2-6.4-73.6l169.6-169.6-166.4-166.4c-16-19.2-16-48 0-67.2 19.2-22.4 51.2-22.4 73.6-6.4l166.4 166.4 169.6-169.6c19.2-16 48-16 67.2 0 22.4 19.2 22.4 51.2 3.2 73.6l-166.4 169.6 166.4 166.4z"
          ],
          "attrs": [
            {}
          ],
          "isMulticolor": false,
          "isMulticolor2": false,
          "grid": 32,
          "tags": [
            "cross-sign"
          ]
        },
        {
          "id": 30,
          "paths": [
            "M512 0c259.2 0 467.2 208 467.2 467.2 0 224-156.8 409.6-361.6 454.4l-105.6 102.4-102.4-102.4c-208-48-364.8-233.6-364.8-454.4 0-259.2 208-467.2 467.2-467.2v0zM512 809.6c188.8 0 345.6-153.6 345.6-345.6s-153.6-339.2-345.6-339.2c-192 0-345.6 150.4-345.6 342.4s153.6 342.4 345.6 342.4zM323.2 588.8l313.6-313.6 64 64-313.6 313.6-64-64zM387.2 275.2l313.6 313.6-64 64-313.6-313.6 64-64z"
          ],
          "attrs": [
            {}
          ],
          "isMulticolor": false,
          "isMulticolor2": false,
          "grid": 32,
          "tags": [
            "cross-trans-marker"
          ]
        },
        {
          "id": 28,
          "paths": [
            "M521.6 540.8l502.4-278.4c-3.2-41.6-35.2-73.6-76.8-73.6h-870.4c-41.6 0-73.6 32-76.8 73.6l521.6 278.4zM0 316.8v441.6c0 41.6 35.2 76.8 76.8 76.8h870.4c41.6 0 76.8-35.2 76.8-76.8v-441.6l-326.4 172.8 230.4 230.4-3.2 16c-3.2 3.2-16 3.2-19.2 3.2l-230.4-236.8-153.6 89.6-172.8-89.6-227.2 236.8-19.2 3.2c0-3.2-6.4-12.8-6.4-12.8l230.4-240-326.4-172.8z"
          ],
          "attrs": [
            {}
          ],
          "isMulticolor": false,
          "isMulticolor2": false,
          "grid": 32,
          "tags": [
            "envelope"
          ]
        },
        {
          "id": 27,
          "paths": [
            "M896 448h128v-448h-448v128h233.6l-435.2 438.4 89.6 89.6 432-435.2v227.2zM896 704v192h-768v-768h192v-128h-320v1024h1024v-320h-128z"
          ],
          "attrs": [
            {}
          ],
          "isMulticolor": false,
          "isMulticolor2": false,
          "grid": 32,
          "tags": [
            "external-link"
          ]
        },
        {
          "id": 26,
          "paths": [
            "M512 176c-224 0-416 134.4-512 336 96 201.6 288 336 512 336s416-134.4 512-336c-96-201.6-288-336-512-336zM764.8 668.8c-70.4 48-156.8 76.8-252.8 76.8s-182.4-28.8-252.8-80c-60.8-41.6-108.8-92.8-147.2-153.6 38.4-67.2 86.4-118.4 147.2-160 73.6-51.2 160-80 252.8-80s182.4 28.8 252.8 80c60.8 41.6 108.8 92.8 147.2 153.6-35.2 70.4-86.4 121.6-147.2 163.2v0z",
            "M697.6 512c0 102.4-83.2 185.6-185.6 185.6s-185.6-83.2-185.6-185.6 83.2-185.6 185.6-185.6 185.6 83.2 185.6 185.6z"
          ],
          "attrs": [
            {},
            {}
          ],
          "isMulticolor": false,
          "isMulticolor2": false,
          "grid": 32,
          "tags": [
            "eye"
          ]
        },
        {
          "id": 25,
          "paths": [
            "M1014.4 969.6c0 25.6-22.4 44.8-48 44.8h-265.6v-387.2h134.4l16-153.6h-150.4v-99.2c0-73.6 83.2-67.2 83.2-67.2h83.2v-144c-32 0-70.4-3.2-124.8-3.2-195.2-3.2-192 198.4-192 198.4v115.2h-137.6v153.6h137.6v390.4h-496c-25.6 0-44.8-19.2-44.8-44.8v-918.4c0-25.6 19.2-44.8 44.8-44.8h915.2c25.6 0 44.8 19.2 44.8 44.8v915.2z"
          ],
          "attrs": [
            {}
          ],
          "isMulticolor": false,
          "isMulticolor2": false,
          "grid": 32,
          "tags": [
            "facebook"
          ]
        },
        {
          "id": 23,
          "paths": [
            "M256 384h512v64h-512v-64zM256 576h512v64h-512v-64zM256 768h512v64h-512v-64zM128 896c0 70.4 57.6 128 128 128h512c70.4 0 128-57.6 128-128v-544c0-35.2-22.4-83.2-44.8-108.8l-220.8-195.2c-25.6-25.6-70.4-44.8-108.8-44.8l-265.6-3.2c-70.4 0-128 57.6-128 128v768z"
          ],
          "attrs": [
            {}
          ],
          "isMulticolor": false,
          "isMulticolor2": false,
          "grid": 32,
          "tags": [
            "file"
          ]
        },
        {
          "id": 24,
          "paths": [
            "M912 192h-131.2c-28.8 0-54.4-25.6-54.4-54.4v-134.4h-384c-32-3.2-54.4 19.2-54.4 48v736c0 28.8 22.4 51.2 51.2 51.2h524.8c28.8 0 51.2-22.4 51.2-51.2v-588.8l-3.2-6.4zM838.4 643.2c0 0 0 0 0 0 0 12.8-12.8 22.4-25.6 22.4v0h-419.2c-12.8 0-25.6-12.8-25.6-25.6v0c0-16 12.8-25.6 25.6-25.6h419.2c12.8 0 25.6 12.8 25.6 28.8s0 0 0 0v0zM838.4 486.4v0c0 12.8-12.8 25.6-25.6 25.6h-419.2c-12.8 0-25.6-12.8-25.6-25.6v-3.2c0-12.8 12.8-25.6 25.6-25.6h419.2c12.8 3.2 25.6 12.8 25.6 28.8 0 0 0 0 0 0v0 0zM838.4 329.6c0 12.8-12.8 25.6-25.6 25.6h-419.2c-12.8 0-25.6-12.8-25.6-25.6v-3.2c0-12.8 12.8-25.6 25.6-25.6h419.2c12.8 0 25.6 12.8 25.6 28.8 0 0 0 0 0 0v0z",
            "M284.8 918.4v0c-41.6 0-73.6-32-73.6-73.6 0 0 0 0 0 0v-662.4h-51.2c-28.8 0-51.2 22.4-51.2 51.2v736c0 32 22.4 54.4 51.2 54.4h524.8c28.8 0 51.2-22.4 51.2-51.2v-51.2l-451.2-3.2z"
          ],
          "attrs": [
            {},
            {}
          ],
          "isMulticolor": false,
          "isMulticolor2": false,
          "grid": 32,
          "tags": [
            "file-stack"
          ]
        },
        {
          "id": 22,
          "paths": [
            "M505.6 0c281.6-3.2 515.2 224 518.4 505.6s-220.8 515.2-505.6 518.4c-281.6 3.2-515.2-220.8-518.4-502.4s224-518.4 505.6-521.6v0zM595.2 105.6c-83.2 0-118.4 60.8-118.4 102.4-3.2 51.2 25.6 80 86.4 80 70.4 0 115.2-51.2 115.2-102.4-0-41.6-19.2-80-83.2-80zM435.2 918.4c41.6 0 153.6-41.6 259.2-144l-25.6-32c-41.6 32-86.4 48-99.2 48-9.6 0-12.8-12.8-3.2-51.2l57.6-217.6c22.4-80 16-131.2-28.8-131.2-51.2 0-172.8 51.2-278.4 140.8l19.2 35.2c35.2-25.6 89.6-44.8 102.4-44.8 9.6 0 9.6 16 0 48l-51.2 204.8c-28.8 118.4 3.2 144 48 144v0z"
          ],
          "attrs": [
            {}
          ],
          "isMulticolor": false,
          "isMulticolor2": false,
          "grid": 32,
          "tags": [
            "info-sign"
          ]
        },
        {
          "id": 21,
          "paths": [
            "M947.2 0h-870.4c-44.8 0-76.8 32-76.8 73.6v873.6c0 44.8 32 76.8 76.8 76.8h873.6c41.6 0 76.8-32 76.8-76.8v-873.6c-3.2-41.6-35.2-73.6-80-73.6zM310.4 854.4h-153.6v-460.8h156.8v460.8zM233.6 329.6v0c-54.4 0-86.4-35.2-86.4-80s35.2-80 86.4-80c54.4-0 86.4 38.4 86.4 80s-32 80-86.4 80zM867.2 854.4h-156.8v-246.4c0-60.8-22.4-105.6-76.8-105.6-41.6 0-70.4 28.8-80 54.4-3.2 9.6-3.2 25.6-3.2 38.4v259.2h-156.8c0 0 3.2-416 0-460.8h156.8v67.2c19.2-32 57.6-76.8 140.8-76.8 99.2 0 179.2 67.2 179.2 208v262.4zM550.4 460.8c0 0 0 0 0 0v0z"
          ],
          "attrs": [
            {}
          ],
          "isMulticolor": false,
          "isMulticolor2": false,
          "grid": 32,
          "tags": [
            "linkedin"
          ]
        },
        {
          "id": 20,
          "paths": [
            "M281.6 336v131.2h601.6v556.8h-742.4v-556.8h57.6v-131.2c3.2-185.6 140.8-336 313.6-336s313.6 153.6 313.6 336v35.2h-83.2v-35.2c0-134.4-102.4-246.4-230.4-246.4-124.8 0-230.4 108.8-230.4 246.4v0z"
          ],
          "attrs": [
            {}
          ],
          "isMulticolor": false,
          "isMulticolor2": false,
          "grid": 32,
          "tags": [
            "lock-open"
          ]
        },
        {
          "id": 18,
          "paths": [
            "M512 0c217.6 0 393.6 172.8 393.6 390.4 0 48-9.6 96-25.6 140.8-41.6 124.8-368 492.8-368 492.8s-323.2-364.8-368-489.6v-6.4c-19.2-41.6-25.6-89.6-25.6-140.8 0-214.4 176-387.2 393.6-387.2v0zM512 489.6c73.6 0 131.2-57.6 131.2-131.2s-57.6-134.4-131.2-134.4-131.2 57.6-131.2 131.2 60.8 134.4 131.2 134.4z"
          ],
          "attrs": [
            {}
          ],
          "isMulticolor": false,
          "isMulticolor2": false,
          "grid": 32,
          "tags": [
            "marker"
          ]
        },
        {
          "id": 19,
          "paths": [
            "M118.4 387.2c0 51.2 9.6 99.2 25.6 140.8v0 0 0 0 3.2c41.6 128 368 492.8 368 492.8s329.6-371.2 368-492.8c19.2-44.8 25.6-92.8 25.6-140.8 0-214.4-172.8-390.4-393.6-390.4s-393.6 176-393.6 387.2v0zM614.4 172.8c-25.6-3.2-73.6-9.6-105.6-19.2h96c3.2 0 9.6 3.2 9.6 9.6v9.6zM614.4 208c-57.6-3.2-128-19.2-204.8-44.8 3.2-3.2 3.2-9.6 9.6-9.6h44.8c51.2 16 102.4 28.8 153.6 38.4l-3.2 16zM614.4 243.2c-57.6-3.2-128-16-204.8-38.4v-25.6c70.4 22.4 137.6 38.4 204.8 44.8v19.2zM614.4 281.6c-57.6-3.2-128-12.8-204.8-32v-25.6c70.4 22.4 137.6 35.2 204.8 38.4v19.2zM409.6 291.2v-22.4c70.4 19.2 137.6 32 204.8 32v19.2c-57.6 0-128-9.6-204.8-28.8zM777.6 348.8v12.8c-108.8 38.4-284.8 60.8-531.2-25.6v-3.2c0-3.2 3.2-9.6 9.6-9.6h38.4c166.4 54.4 336 70.4 483.2 25.6v0zM777.6 380.8v9.6c-108.8 41.6-284.8 70.4-531.2-9.6v-25.6c185.6 64 368 80 531.2 25.6zM777.6 412.8v9.6c-108.8 44.8-284.8 80-531.2 9.6v-28.8c185.6 57.6 368 70.4 531.2 9.6v0zM777.6 444.8v9.6c-108.8 48-284.8 89.6-531.2 25.6v-28.8c185.6 51.2 368 57.6 531.2-6.4v0zM614.4 521.6v19.2c-57.6 12.8-128 16-204.8 12.8v-25.6c70.4 6.4 137.6 6.4 204.8-6.4zM246.4 502.4c32 9.6 76.8 16 108.8 22.4h-99.2c-6.4 0-9.6-3.2-9.6-9.6v-12.8zM624 521.6c54.4-9.6 105.6-25.6 153.6-44.8v12.8c-25.6 9.6-51.2 22.4-86.4 32h-67.2zM614.4 560v19.2c-57.6 12.8-128 22.4-204.8 19.2v-25.6c70.4 3.2 137.6-0 204.8-12.8v0zM614.4 598.4v19.2c-57.6 16-128 25.6-204.8 25.6v-25.6c70.4 0 137.6-6.4 204.8-19.2zM409.6 659.2c70.4 0 137.6-9.6 204.8-25.6v16c-57.6 19.2-128 32-201.6 32-3.2 0-3.2-3.2-3.2-3.2l-0-19.2zM531.2 691.2c28.8-6.4 57.6-12.8 83.2-22.4v12.8c0 3.2-3.2 9.6-9.6 9.6h-73.6zM409.6 310.4v9.6h-57.6c188.8 51.2 336 35.2 425.6 9.6 0-3.2-3.2-9.6-6.4-9.6h-9.6c-108.8 25.6-227.2 19.2-352-9.6v0zM739.2 521.6c9.6-3.2 28.8-12.8 38.4-16v9.6c0 3.2-3.2 9.6-6.4 9.6h-32z"
          ],
          "attrs": [
            {}
          ],
          "isMulticolor": false,
          "isMulticolor2": false,
          "grid": 32,
          "tags": [
            "marker-zk"
          ]
        },
        {
          "id": 16,
          "paths": [
            "M460.8 924.8c0-35.2 28.8-67.2 64-67.2s67.2 28.8 67.2 67.2c0 35.2-28.8 64-67.2 64s-64-25.6-64-64zM790.4 0h-560c-19.2-3.2-48 32-44.8 51.2v924.8c0 25.6 22.4 44.8 44.8 44.8h563.2c22.4 0 44.8-19.2 44.8-44.8v-928c0-19.2-25.6-48-48-48zM758.4 102.4v716.8h-492.8v-716.8h492.8z"
          ],
          "attrs": [
            {}
          ],
          "isMulticolor": false,
          "isMulticolor2": false,
          "grid": 32,
          "tags": [
            "mobile"
          ]
        },
        {
          "id": 17,
          "paths": [
            "M611.2 211.2c19.2 19.2 25.6 51.2 6.4 73.6l-131.2 163.2 124.8 156.8c19.2 25.6 19.2 57.6 0 73.6s-57.6 19.2-73.6-6.4l-179.2-230.4 179.2-230.4c19.2-12.8 54.4-12.8 73.6-0v0z",
            "M406.4 400h560v99.2h-560v-99.2z",
            "M457.6 924.8c0-35.2 28.8-67.2 64-67.2s67.2 28.8 67.2 67.2c0 35.2-28.8 64-67.2 64s-64-25.6-64-64zM787.2 0h-556.8c-22.4-3.2-48 32-48 51.2v924.8c0 25.6 22.4 44.8 44.8 44.8h563.2c22.4 0 44.8-19.2 44.8-44.8v-928c3.2-19.2-22.4-48-48-48zM755.2 102.4v716.8h-489.6v-716.8h489.6z"
          ],
          "attrs": [
            {},
            {},
            {}
          ],
          "isMulticolor": false,
          "isMulticolor2": false,
          "grid": 32,
          "tags": [
            "mobile-arrow"
          ]
        },
        {
          "id": 13,
          "paths": [
            "M297.6 985.6l-275.2-345.6c-35.2-44.8-22.4-112 22.4-144s112-22.4 147.2 22.4l182.4 224 451.2-694.4c28.8-48 96-64 147.2-32s67.2 92.8 32 140.8l-531.2 819.2c-19.2 25.6-51.2 44.8-86.4 48h-6.4c-32 0-64-12.8-83.2-38.4v0z"
          ],
          "attrs": [
            {}
          ],
          "isMulticolor": false,
          "isMulticolor2": false,
          "grid": 32,
          "tags": [
            "ok"
          ]
        },
        {
          "id": 15,
          "paths": [
            "M512 0c-281.6 0-512 230.4-512 512s230.4 512 512 512 512-230.4 512-512-230.4-512-512-512zM761.6 329.6c0 3.2 0 3.2 0 0l-268.8 412.8c-9.6 16-25.6 25.6-44.8 25.6v0 0c-16 0-32-6.4-41.6-19.2l-140.8-172.8c-16-22.4-12.8-51.2 6.4-70.4 0 0 3.2 0 3.2-3.2 22.4-16 57.6-12.8 73.6 9.6l89.6 112 227.2-348.8c16-25.6 48-32 73.6-16 28.8 19.2 35.2 48 22.4 70.4z"
          ],
          "attrs": [
            {}
          ],
          "isMulticolor": false,
          "isMulticolor2": false,
          "grid": 32,
          "tags": [
            "ok-sign"
          ]
        },
        {
          "id": 14,
          "paths": [
            "M512 0c256 0 467.2 211.2 467.2 467.2 0 224-156.8 406.4-364.8 454.4l-102.4 102.4-102.4-102.4c-208-48-364.8-230.4-364.8-454.4 0-256 211.2-467.2 467.2-467.2zM512 809.6c192 0 342.4-153.6 342.4-342.4s-150.4-345.6-342.4-345.6c-192 0-345.6 153.6-345.6 345.6s153.6 342.4 345.6 342.4zM739.2 310.4l-268.8 371.2-169.6-169.6 54.4-57.6 102.4 105.6 214.4-297.6 67.2 48z"
          ],
          "attrs": [
            {}
          ],
          "isMulticolor": false,
          "isMulticolor2": false,
          "grid": 32,
          "tags": [
            "ok-trans-marker"
          ]
        },
        {
          "id": 12,
          "paths": [
            "M294.4 908.8l32-32c0 0-3.2-54.4-67.2-118.4s-124.8-64-124.8-64l-28.8 28.8-22.4 105.6c19.2 9.6 38.4 22.4 60.8 44.8s35.2 38.4 44.8 57.6l105.6-22.4zM940.8 96c96 92.8 83.2 160 83.2 160-236.8 230.4-473.6 457.6-710.4 688l-310.4 64 64-304c233.6-230.4 470.4-457.6 707.2-688 0 0 73.6-9.6 166.4 80v0z"
          ],
          "attrs": [
            {}
          ],
          "isMulticolor": false,
          "isMulticolor2": false,
          "grid": 32,
          "tags": [
            "pencil"
          ]
        },
        {
          "id": 11,
          "paths": [
            "M553.6 0v444.8l432-147.2c-73.6-172.8-236.8-291.2-432-297.6v0z",
            "M972.8 377.6l-102.4 35.2c12.8 35.2 19.2 73.6 19.2 115.2 0 208-166.4 374.4-374.4 374.4 0 0 0 0 0 0-204.8 0-374.4-166.4-374.4-371.2 0-195.2 150.4-358.4 342.4-371.2h6.4v-112c-256 9.6-464 224-464 489.6 0 268.8 217.6 486.4 486.4 486.4s486.4-217.6 486.4-486.4c0-57.6-9.6-112-28.8-163.2l3.2 3.2z",
            "M492.8 540.8v-358.4h-6.4c-179.2 12.8-320 163.2-320 345.6 0 0 0 0 0 3.2 0 195.2 156.8 352 352 352s352-156.8 352-352c0-38.4-6.4-76.8-19.2-112l-358.4 121.6zM428.8 662.4c-3.2 3.2-9.6 3.2-16 6.4-6.4 0-12.8 3.2-19.2 3.2s-12.8 0-19.2 0c0 0-3.2 0-3.2 0-25.6 0-48-9.6-67.2-22.4-19.2-19.2-35.2-41.6-38.4-70.4h-35.2l12.8-35.2h19.2v-16c0-3.2 0-3.2 0-6.4h-32l12.8-35.2h22.4c3.2-16 9.6-32 16-44.8 6.4-9.6 16-19.2 25.6-28.8 9.6-6.4 19.2-12.8 32-16s22.4-6.4 38.4-6.4c0 0 0 0 0 0s0 0 3.2 0c12.8 0 22.4 0 35.2 3.2 9.6 0 16 3.2 25.6 6.4l-16 38.4c-6.4-3.2-12.8-3.2-19.2-6.4-6.4 0-16-3.2-25.6-3.2 0 0 0 0 0 0s0 0-3.2 0c-12.8 0-28.8 3.2-38.4 12.8-12.8 9.6-19.2 22.4-25.6 38.4h99.2l-9.6 35.2h-96c0 0 0 3.2 0 3.2s0 3.2 0 3.2v16h89.6l-9.6 35.2h-73.6c3.2 16 12.8 28.8 25.6 38.4s25.6 12.8 41.6 12.8c0 0 3.2 0 3.2 0 9.6 0 19.2-3.2 28.8-3.2 6.4-3.2 12.8-6.4 22.4-9.6l9.6 38.4c-6.4 9.6-12.8 12.8-16 12.8v0z"
          ],
          "attrs": [
            {},
            {},
            {}
          ],
          "isMulticolor": false,
          "isMulticolor2": false,
          "grid": 32,
          "tags": [
            "pie-euro"
          ]
        },
        {
          "id": 10,
          "paths": [
            "M512 0c259.2 0 467.2 208 467.2 467.2 0 224-156.8 406.4-364.8 454.4l-102.4 102.4-102.4-102.4c-208-48-364.8-233.6-364.8-454.4 0-259.2 208-467.2 467.2-467.2zM761.6 576v-201.6h-153.6v-150.4h-198.4v153.6h-150.4v198.4h150.4v153.6h198.4v-153.6h153.6z"
          ],
          "attrs": [
            {}
          ],
          "isMulticolor": false,
          "isMulticolor2": false,
          "grid": 32,
          "tags": [
            "plus-marker"
          ]
        },
        {
          "id": 9,
          "paths": [
            "M832 576v-128h-256v-256h-128v256h-256v128h256v256h128v-256h256zM512 0c281.6 0 512 230.4 512 512s-230.4 512-512 512c-281.6 0-512-230.4-512-512s230.4-512 512-512z"
          ],
          "attrs": [
            {}
          ],
          "isMulticolor": false,
          "isMulticolor2": false,
          "grid": 32,
          "tags": [
            "plus-sign"
          ]
        },
        {
          "id": 8,
          "paths": [
            "M1024 323.2c0-12.8-9.6-22.4-22.4-22.4h-166.4v-272c0-12.8-12.8-25.6-25.6-25.6h-598.4c-12.8 0-25.6 12.8-25.6 25.6v272h-163.2c-12.8 0-22.4 9.6-22.4 22.4v0 464c0 12.8 9.6 25.6 22.4 25.6h166.4v-195.2h646.4v195.2h166.4c12.8 0 22.4-12.8 22.4-25.6v-464zM771.2 406.4h-518.4v-313.6c0-12.8 9.6-22.4 22.4-22.4h473.6c12.8 0 22.4 9.6 22.4 22.4l0 313.6zM256 995.2c0 12.8 9.6 25.6 22.4 25.6h470.4c12.8 0 22.4-12.8 22.4-25.6v-310.4h-515.2v310.4z"
          ],
          "attrs": [
            {}
          ],
          "isMulticolor": false,
          "isMulticolor2": false,
          "grid": 32,
          "tags": [
            "print"
          ]
        },
        {
          "id": 6,
          "paths": [
            "M470.4 806.4c-35.2 0-60.8 9.6-83.2 28.8s-32 44.8-32 76.8c0 32 9.6 60.8 32 80s48 28.8 83.2 28.8c35.2 0 64-9.6 86.4-28.8s32-44.8 32-80c0-32-9.6-57.6-32-76.8s-51.2-28.8-86.4-28.8z",
            "M726.4 64c-51.2-41.6-118.4-64-208-64-67.2 0-121.6 9.6-169.6 25.6s-89.6 35.2-124.8 57.6l70.4 134.4c12.8-9.6 25.6-16 41.6-25.6s32-16 48-22.4c16-6.4 35.2-9.6 51.2-12.8s32-6.4 48-6.4c48 0 80 9.6 99.2 28.8s28.8 44.8 28.8 80c0 25.6-6.4 48-19.2 67.2s-28.8 35.2-44.8 54.4c-19.2 16-38.4 35.2-60.8 54.4s-41.6 41.6-57.6 64c-16 25.6-28.8 54.4-38.4 89.6s-12.8 76.8-6.4 124.8h156.8c0-38.4 6.4-73.6 19.2-99.2s28.8-48 48-67.2c19.2-19.2 38.4-38.4 60.8-54.4s44.8-35.2 60.8-57.6c19.2-22.4 35.2-48 48-80s19.2-70.4 19.2-118.4c3.2-70.4-22.4-128-70.4-172.8v0z"
          ],
          "attrs": [
            {},
            {}
          ],
          "isMulticolor": false,
          "isMulticolor2": false,
          "grid": 32,
          "tags": [
            "question"
          ]
        },
        {
          "id": 7,
          "paths": [
            "M512 0c-281.6 0-512 230.4-512 512s230.4 512 512 512 512-230.4 512-512-230.4-512-512-512zM550.4 777.6h-86.4v-102.4h86.4v102.4zM652.8 457.6c-12.8 22.4-28.8 41.6-51.2 54.4-19.2 12.8-35.2 28.8-51.2 48-6.4 9.6-12.8 22.4-12.8 38.4v25.6h-64c-12.8-16-19.2-38.4-19.2-57.6 0-12.8 6.4-25.6 12.8-38.4 16-19.2 32-35.2 51.2-48s35.2-28.8 48-48c9.6-12.8 12.8-28.8 12.8-44.8 0-35.2-25.6-54.4-76.8-54.4-32 0-64 3.2-92.8 9.6l-16 3.2-3.2-57.6c38.4-16 83.2-22.4 124.8-25.6 51.2 0 89.6 9.6 115.2 28.8s35.2 48 35.2 89.6c0 28.8-3.2 54.4-12.8 76.8z"
          ],
          "attrs": [
            {}
          ],
          "isMulticolor": false,
          "isMulticolor2": false,
          "grid": 32,
          "tags": [
            "question-sign"
          ]
        },
        {
          "id": 5,
          "paths": [
            "M707.2 432c0-76.8-25.6-140.8-80-195.2s-121.6-80-195.2-80-140.8 25.6-192 80-83.2 121.6-83.2 195.2 28.8 140.8 83.2 195.2c54.4 54.4 118.4 83.2 195.2 83.2s140.8-28.8 195.2-83.2c51.2-54.4 76.8-118.4 76.8-195.2zM1024 944c0 41.6-35.2 80-80 80-22.4 0-41.6-9.6-54.4-22.4l-211.2-211.2c-73.6 51.2-153.6 76.8-246.4 76.8-128 0-236.8-57.6-304-128s-128-176-128-307.2 57.6-240 128-307.2 176-124.8 304-124.8 240 57.6 307.2 124.8 128 179.2 128 307.2c0 89.6-25.6 172.8-76.8 246.4l211.2 211.2c12.8 16 22.4 32 22.4 54.4v0z"
          ],
          "attrs": [
            {}
          ],
          "isMulticolor": false,
          "isMulticolor2": false,
          "grid": 32,
          "tags": [
            "search"
          ]
        },
        {
          "id": 4,
          "paths": [
            "M512 32l128 355.2 384 9.6-304 230.4 108.8 364.8-316.8-217.6-316.8 217.6 108.8-361.6-304-230.4 384-9.6 128-358.4z"
          ],
          "attrs": [
            {}
          ],
          "isMulticolor": false,
          "isMulticolor2": false,
          "grid": 32,
          "tags": [
            "star"
          ]
        },
        {
          "id": 3,
          "paths": [
            "M1024 217.6c-38.4 16-76.8 25.6-121.6 32 41.6-22.4 76.8-60.8 92.8-108.8-38.4 22.4-86.4 38.4-134.4 48-35.2-38.4-89.6-60.8-153.6-60.8-115.2 0-211.2 86.4-211.2 195.2 0 16 3.2 28.8 6.4 44.8-172.8-9.6-329.6-89.6-432-204.8-16 28.8-28.8 64-28.8 96 0 67.2 38.4 128 92.8 163.2-35.2 0-67.2-9.6-92.8-22.4v3.2c0 92.8 70.4 172.8 166.4 188.8-19.2 6.4-35.2 6.4-57.6 6.4-12.8 0-25.6-3.2-38.4-3.2 28.8 76.8 105.6 134.4 198.4 134.4-70.4 51.2-163.2 83.2-262.4 83.2-16 0-35.2-3.2-51.2-3.2 96 54.4 208 86.4 326.4 86.4 387.2 0 598.4-294.4 598.4-550.4 0-6.4 0-16 0-22.4 38.4-32 73.6-64 102.4-105.6v0z"
          ],
          "attrs": [
            {}
          ],
          "isMulticolor": false,
          "isMulticolor2": false,
          "grid": 32,
          "tags": [
            "twitter"
          ]
        },
        {
          "id": 2,
          "paths": [
            "M640 553.6v83.2c12.8 6.4 25.6 16 44.8 25.6 38.4 19.2 76.8 35.2 115.2 51.2 44.8 19.2 89.6 44.8 134.4 60.8 35.2 12.8 57.6 44.8 70.4 76.8 6.4 19.2 12.8 35.2 19.2 54.4v86.4h-1024v-89.6c12.8-57.6 38.4-108.8 89.6-131.2 6.4-3.2 19.2-6.4 35.2-12.8 35.2-16 73.6-32 108.8-48l60.8-28.8c19.2-9.6 25.6-19.2 41.6-28.8l48-22.4v-80l-3.2-19.2c-3.2-6.4 9.6-16 6.4-25.6l-6.4-25.6c-25.6-48-41.6-115.2-41.6-188.8 0-118.4 28.8-211.2 108.8-246.4 22.4-9.6 44.8-12.8 70.4-12.8 96 0 144 60.8 166.4 137.6 9.6 35.2 12.8 73.6 12.8 121.6 0 70.4-19.2 137.6-41.6 185.6l-9.6 32c-3.2 6.4 0 19.2-3.2 25.6s-3.2 16-3.2 19.2v0z"
          ],
          "attrs": [
            {}
          ],
          "isMulticolor": false,
          "isMulticolor2": false,
          "grid": 32,
          "tags": [
            "user"
          ]
        },
        {
          "id": 1,
          "paths": [
            "M841.6 144c-6.4-32-35.2-57.6-70.4-57.6-3.2 0-9.6 0-12.8 0l-496 99.2h582.4l-3.2-41.6z",
            "M988.8 435.2h-249.6c-19.2 0-35.2 16-35.2 35.2v118.4c0 19.2 16 35.2 35.2 35.2h249.6c19.2 0 35.2-16 35.2-35.2v-118.4c0-19.2-16-35.2-35.2-35.2zM822.4 592c-32 0-60.8-25.6-60.8-60.8 0-32 25.6-60.8 60.8-60.8s60.8 25.6 60.8 60.8c-3.2 35.2-28.8 60.8-60.8 60.8z",
            "M665.6 604.8v-144c-3.2-25.6 35.2-64 64-60.8h246.4v-105.6c0-38.4-32-70.4-70.4-70.4h-832c-41.6 0-73.6 28.8-73.6 70.4v569.6c0 38.4 32 70.4 70.4 70.4h832c38.4 0 70.4-32 70.4-70.4v-201.6h-252.8c-19.2-3.2-54.4-41.6-54.4-57.6v0z"
          ],
          "attrs": [
            {},
            {},
            {}
          ],
          "isMulticolor": false,
          "isMulticolor2": false,
          "grid": 32,
          "tags": [
            "wallet"
          ]
        },
        {
          "id": 0,
          "paths": [
            "M1024 499.2c0 275.2-224 499.2-502.4 499.2-89.6 0-169.6-22.4-243.2-60.8-278.4 86.4-278.4 86.4-278.4 86.4 32-89.6 92.8-265.6 92.8-265.6-44.8-73.6-70.4-163.2-70.4-256-3.2-278.4 220.8-502.4 499.2-502.4s502.4 224 502.4 499.2zM521.6 80c-230.4 0-422.4 185.6-422.4 419.2 0 92.8 32 176 83.2 246.4-51.2 156.8-51.2 156.8-51.2 156.8 54.4-16 163.2-51.2 163.2-51.2 67.2 44.8 147.2 67.2 233.6 67.2 233.6 0 422.4-188.8 422.4-419.2s-195.2-419.2-428.8-419.2c0 0 0 0 0 0zM768 672c-9.6 28.8-60.8 54.4-83.2 57.6s-22.4 16-147.2-32c-124.8-48-204.8-176-211.2-185.6-6.4-6.4-51.2-64-51.2-124.8s32-86.4 44.8-99.2 22.4-12.8 35.2-12.8c6.4 0 16 0 22.4 0s16-3.2 28.8 19.2c9.6 22.4 35.2 86.4 38.4 92.8s6.4 12.8 0 19.2c-3.2 6.4-6.4 12.8-12.8 19.2s-16 19.2-19.2 22.4c-6.4 6.4-12.8 12.8-6.4 22.4s32 51.2 67.2 86.4c48 41.6 86.4 54.4 99.2 60.8s19.2 3.2 28.8-3.2c6.4-6.4 32-35.2 38.4-48s16-9.6 28.8-6.4c9.6 3.2 70.4 35.2 86.4 41.6 12.8 6.4 19.2 9.6 22.4 12.8 0 3.2 0 28.8-9.6 57.6z"
          ],
          "attrs": [
            {}
          ],
          "isMulticolor": false,
          "isMulticolor2": false,
          "grid": 32,
          "tags": [
            "whatsapp"
          ]
        }
      ],
      "invisible": false,
      "colorThemes": []
    }
  ],
  "uid": -1,
  "preferences": {
    "showGlyphs": true,
    "showCodes": true,
    "showQuickUse": true,
    "showQuickUse2": true,
    "showSVGs": true,
    "fontPref": {
      "prefix": "u-icon-",
      "metadata": {
        "fontFamily": "zk-icons-font",
        "majorVersion": 1,
        "minorVersion": 1
      },
      "metrics": {
        "emSize": 1024,
        "baseline": 14.286,
        "whitespace": 50
      },
      "embed": false,
      "noie8": true,
      "ie7": false,
      "cssVars": true,
      "cssVarsFormat": "scss",
      "showSelector": true,
      "selector": "class",
      "classSelector": ".u-icon",
      "showMetrics": true,
      "showVersion": true
    },
    "imagePref": {
      "prefix": "icon-",
      "png": true,
      "useClassSelector": true,
      "color": 0,
      "bgColor": 16777215,
      "classSelector": ".icon",
      "height": 32,
      "overrideSize": ""
    },
    "historySize": 50,
    "showLiga": true,
    "gridSize": 16,
    "showGrid": true
  }
}